-128 -176 -24 640
408 -80 488
96 -48 -24 16 -152 -192 -216 192
-136 848
-200 216 -72 -176 296
-176 -8 -144 640
-48 -96 -208 616
-208 16 -176 568
-208 -216 -128 -224 184
-240 -24 -32 -40 -32 -184 -112 272
-176 -48 752
-200 -16 -32 -192 -32 480
-40 32 -80 -40 -88 40 -136 480
-8 -224 -8 728
-104 -8 -144 712
-184 -200 592
-208 -112 32 -120 -96 384
-200 -64 -200 -192 304
-208 -184 -176 -176 -88 120
-104 24 -32 192 -168 432
-24 -40 -96 -120 -16 32 -48 -224 -48 272
-16 -8 16 -224 -96 -120 -64 24 -64 288
-48 -40 -24 -120 112 -232 368
-224 -120 -32 592
352 -240 384
