32 -8 -24 -16 880
128 -16 832
992
80 -80 -24 -24 752
24 -16 -8 920
8 -24 32 -160 736
-16 968
-8 -240 728
-160 824
24 -8 8 -8 912
40 -40 -56 832
200 -192 -192 384
-8 -40 -24 -16 -8 856
-80 -80 816
408 -96 -184 280
800 -80 96
-120 32 -80 -160 568
240 -160 576
-8 -8 8 -8 -8 912
-80 904
104 -40 832
8 -16 24 -32 40 -48 776
272 -64 -72 560
72 -8 -8 -8 864
88 -8 -16 -24 -32 -40 736
-8 48 -32 -40 -48 56 -64 640
296 -8 -8 -8 -8 -8 608
