25

6
7
15
7
8
4
2
13

26
28
-1

15
-1
12
7
-1

7
6
-1
9
12
2
8
9
6
12
5

5
4
6
10
4
5
3
3
9
7
-2
-3

1
6
3
11
10
10
-2
4
10
-4
8

5
3
-1
8
4
8
1
-3
-3
-1
2

18
16
3
20
22

2
7
8
3
-1
1
12
3
3

1
8
5
5

3
7
12
2
6
1
10
8
-1
2

10
2
8
1
2
-2
8
8
7
-3
8
-1

10
-1
1
8
-2
11

24
22
9
-2
15

3
4
13
6
14
4
5
2
5

1
16
20
-2
-1

7
11
12
9
9
-1
12
10
11
-3

23
9
23
14
-2

13
20
11
-1
14

14
15
10
-1
-1
8
3
4

14
12
24
9
-1

38
20
10

25
2
11
23
13

13
9
-1
7
15
13
-2

1
8
6
9
11
8
1
3
-4
-2
5
