26

22
-1
12
-1
31
13
-1
9
40
-3

40
-1
6
21
-2
20
15
-2
-1
9
20

14
-1
33
8
17
-1
26
10
-1
18

44
34
9
18
-4
-1
-2
-1
41
4
38

8
-1
11

20
-1
19
-1
42

43
-1
39
21
-1
48
-1

30
-1
19
-1

32
29
24
18
6
-1
8
3
-1
11
-5

2
49
3
-3
24
-2
-1
47
38
-3
1

8
32
32
-3
8
20
10
-2
9
-3
-1

26
21
-2
-1
4
24
-1

26
-1

1
-1
12
-1
18
-1
42
-1
23
29
1

17
-1

42
-1

10
17
27
-2
-1
11
39

4
-1
9
34
-2
-1
10
-1
27
4
40

15
-1
38
-1
50

37
44
32
1
-1
-1
15
-1
-1

22
9
29
37
-2

25
11
12

33
-1
17
8
30
-3
14
41
32

43
27

23
48

27
43
-1
15
36
-2
12
3
-4
