40 -80 856
80 -40 856
-24 -24 -24 -24 864
-8 -8 -24 24 -24 864
-24 -48 -80 816
120 -48 808
-16 -8 16 -48 872
-16 -8 -48 -80 808
-40 -72 864
-40 -48 8 -64 800
-8 -8 -8 -8 -8 -24 8 -72 40 -64 664
-40 8 -56 -56 800
-24 -24 8 -48 -24 824
-16 -16 -8 -8 912
-16 -16 16 -72 -40 792
992
992
-64 -40 -40 824
-40 8 -72 40 -16 -56 712
-40 40 -40 -80 -152 -184 408
